%YAML 1.1
%TAG !u! tag:unity3d.com,2011:
--- !u!1001 &100100000
Prefab:
  m_ObjectHideFlags: 1
  serializedVersion: 2
  m_Modification:
    m_TransformParent: {fileID: 0}
    m_Modifications: []
    m_RemovedComponents: []
  m_SourcePrefab: {fileID: 0}
  m_RootGameObject: {fileID: 1988754725147000}
  m_IsPrefabAsset: 1
--- !u!1 &1598789451699818
GameObject:
  m_ObjectHideFlags: 0
  m_CorrespondingSourceObject: {fileID: 0}
  m_PrefabInternal: {fileID: 100100000}
  serializedVersion: 6
  m_Component:
  - component: {fileID: 4484448953523486}
  - component: {fileID: 8195094282824526282}
  - component: {fileID: 3664157345914737340}
  m_Layer: 31
  m_Name: Layer1
  m_TagString: Untagged
  m_Icon: {fileID: 0}
  m_NavMeshLayer: 0
  m_StaticEditorFlags: 0
  m_IsActive: 1
--- !u!1 &1988754725147000
GameObject:
  m_ObjectHideFlags: 0
  m_CorrespondingSourceObject: {fileID: 0}
  m_PrefabInternal: {fileID: 100100000}
  serializedVersion: 6
  m_Component:
  - component: {fileID: 4933003427787386}
  - component: {fileID: 2569400266872501162}
  m_Layer: 31
  m_Name: Manual Tiles
  m_TagString: Untagged
  m_Icon: {fileID: 0}
  m_NavMeshLayer: 0
  m_StaticEditorFlags: 0
  m_IsActive: 1
--- !u!4 &4484448953523486
Transform:
  m_ObjectHideFlags: 1
  m_CorrespondingSourceObject: {fileID: 0}
  m_PrefabInternal: {fileID: 100100000}
  m_GameObject: {fileID: 1598789451699818}
  m_LocalRotation: {x: -0, y: -0, z: -0, w: 1}
  m_LocalPosition: {x: 0, y: 0, z: 0}
  m_LocalScale: {x: 1, y: 1, z: 1}
  m_Children: []
  m_Father: {fileID: 4933003427787386}
  m_RootOrder: 0
  m_LocalEulerAnglesHint: {x: 0, y: 0, z: 0}
--- !u!4 &4933003427787386
Transform:
  m_ObjectHideFlags: 1
  m_CorrespondingSourceObject: {fileID: 0}
  m_PrefabInternal: {fileID: 100100000}
  m_GameObject: {fileID: 1988754725147000}
  m_LocalRotation: {x: 0, y: 0, z: 0, w: 1}
  m_LocalPosition: {x: 0, y: 0, z: 0}
  m_LocalScale: {x: 1, y: 1, z: 1}
  m_Children:
  - {fileID: 4484448953523486}
  m_Father: {fileID: 0}
  m_RootOrder: 0
  m_LocalEulerAnglesHint: {x: 0, y: 0, z: 0}
--- !u!114 &114223441893042274
MonoBehaviour:
  m_ObjectHideFlags: 0
  m_CorrespondingSourceObject: {fileID: 0}
  m_PrefabInternal: {fileID: 0}
  m_GameObject: {fileID: 0}
  m_Enabled: 1
  m_EditorHideFlags: 1
  m_Script: {fileID: 12395, guid: 0000000000000000e000000000000000, type: 0}
  m_Name: Palette Settings
  m_EditorClassIdentifier: 
  cellSizing: 0
--- !u!156049354 &2569400266872501162
Grid:
  m_ObjectHideFlags: 1
  m_CorrespondingSourceObject: {fileID: 0}
  m_PrefabInternal: {fileID: 100100000}
  m_GameObject: {fileID: 1988754725147000}
  m_Enabled: 1
  m_CellSize: {x: 1.032258, y: 1.032258, z: 0}
  m_CellGap: {x: 0, y: 0, z: 0}
  m_CellLayout: 0
  m_CellSwizzle: 0
--- !u!483693784 &3664157345914737340
TilemapRenderer:
  m_ObjectHideFlags: 1
  m_CorrespondingSourceObject: {fileID: 0}
  m_PrefabInternal: {fileID: 100100000}
  m_GameObject: {fileID: 1598789451699818}
  m_Enabled: 0
  m_CastShadows: 0
  m_ReceiveShadows: 0
  m_DynamicOccludee: 0
  m_MotionVectors: 1
  m_LightProbeUsage: 0
  m_ReflectionProbeUsage: 0
  m_RenderingLayerMask: 4294967295
  m_Materials:
  - {fileID: 10754, guid: 0000000000000000f000000000000000, type: 0}
  m_StaticBatchInfo:
    firstSubMesh: 0
    subMeshCount: 0
  m_StaticBatchRoot: {fileID: 0}
  m_ProbeAnchor: {fileID: 0}
  m_LightProbeVolumeOverride: {fileID: 0}
  m_ScaleInLightmap: 1
  m_PreserveUVs: 0
  m_IgnoreNormalsForChartDetection: 0
  m_ImportantGI: 0
  m_StitchLightmapSeams: 0
  m_SelectedEditorRenderState: 0
  m_MinimumChartSize: 4
  m_AutoUVMaxDistance: 0.5
  m_AutoUVMaxAngle: 89
  m_LightmapParameters: {fileID: 0}
  m_SortingLayerID: 0
  m_SortingLayer: 0
  m_SortingOrder: 0
  m_ChunkSize: {x: 32, y: 32, z: 32}
  m_ChunkCullingBounds: {x: 0, y: 0, z: 0}
  m_MaxChunkCount: 16
  m_MaxFrameAge: 16
  m_SortOrder: 0
  m_DetectChunkCullingBounds: 0
  m_MaskInteraction: 0
--- !u!1839735485 &8195094282824526282
Tilemap:
  m_ObjectHideFlags: 1
  m_CorrespondingSourceObject: {fileID: 0}
  m_PrefabInternal: {fileID: 100100000}
  m_GameObject: {fileID: 1598789451699818}
  m_Enabled: 1
  m_Tiles:
  - first: {x: -1, y: -13, z: 0}
    second:
      m_TileIndex: 45
      m_TileSpriteIndex: 45
      m_TileMatrixIndex: 0
      m_TileColorIndex: 0
      m_ObjectToInstantiate: {fileID: 0}
      m_TileFlags: 1
      m_ColliderType: 1
  - first: {x: 0, y: -13, z: 0}
    second:
      m_TileIndex: 44
      m_TileSpriteIndex: 44
      m_TileMatrixIndex: 0
      m_TileColorIndex: 0
      m_ObjectToInstantiate: {fileID: 0}
      m_TileFlags: 1
      m_ColliderType: 1
  - first: {x: 1, y: -13, z: 0}
    second:
      m_TileIndex: 43
      m_TileSpriteIndex: 43
      m_TileMatrixIndex: 0
      m_TileColorIndex: 0
      m_ObjectToInstantiate: {fileID: 0}
      m_TileFlags: 1
      m_ColliderType: 1
  - first: {x: -1, y: -12, z: 0}
    second:
      m_TileIndex: 40
      m_TileSpriteIndex: 40
      m_TileMatrixIndex: 0
      m_TileColorIndex: 0
      m_ObjectToInstantiate: {fileID: 0}
      m_TileFlags: 1
      m_ColliderType: 1
  - first: {x: 0, y: -12, z: 0}
    second:
      m_TileIndex: 39
      m_TileSpriteIndex: 39
      m_TileMatrixIndex: 0
      m_TileColorIndex: 0
      m_ObjectToInstantiate: {fileID: 0}
      m_TileFlags: 1
      m_ColliderType: 1
  - first: {x: 1, y: -12, z: 0}
    second:
      m_TileIndex: 38
      m_TileSpriteIndex: 38
      m_TileMatrixIndex: 0
      m_TileColorIndex: 0
      m_ObjectToInstantiate: {fileID: 0}
      m_TileFlags: 1
      m_ColliderType: 1
  - first: {x: 2, y: -12, z: 0}
    second:
      m_TileIndex: 37
      m_TileSpriteIndex: 37
      m_TileMatrixIndex: 0
      m_TileColorIndex: 0
      m_ObjectToInstantiate: {fileID: 0}
      m_TileFlags: 1
      m_ColliderType: 1
  - first: {x: 3, y: -12, z: 0}
    second:
      m_TileIndex: 36
      m_TileSpriteIndex: 42
      m_TileMatrixIndex: 0
      m_TileColorIndex: 0
      m_ObjectToInstantiate: {fileID: 0}
      m_TileFlags: 1
      m_ColliderType: 1
  - first: {x: 2, y: -11, z: 0}
    second:
      m_TileIndex: 33
      m_TileSpriteIndex: 41
      m_TileMatrixIndex: 0
      m_TileColorIndex: 0
      m_ObjectToInstantiate: {fileID: 0}
      m_TileFlags: 1
      m_ColliderType: 1
  - first: {x: 3, y: -11, z: 0}
    second:
      m_TileIndex: 35
      m_TileSpriteIndex: 36
      m_TileMatrixIndex: 0
      m_TileColorIndex: 0
      m_ObjectToInstantiate: {fileID: 0}
      m_TileFlags: 1
      m_ColliderType: 1
  - first: {x: 2, y: -10, z: 0}
    second:
      m_TileIndex: 27
      m_TileSpriteIndex: 27
      m_TileMatrixIndex: 0
      m_TileColorIndex: 0
      m_ObjectToInstantiate: {fileID: 0}
      m_TileFlags: 1
      m_ColliderType: 1
  - first: {x: 0, y: -9, z: 0}
    second:
      m_TileIndex: 24
      m_TileSpriteIndex: 32
      m_TileMatrixIndex: 0
      m_TileColorIndex: 0
      m_ObjectToInstantiate: {fileID: 0}
      m_TileFlags: 1
      m_ColliderType: 1
  - first: {x: 1, y: -9, z: 0}
    second:
      m_TileIndex: 23
      m_TileSpriteIndex: 29
      m_TileMatrixIndex: 0
      m_TileColorIndex: 0
      m_ObjectToInstantiate: {fileID: 0}
      m_TileFlags: 1
      m_ColliderType: 1
  - first: {x: 2, y: -9, z: 0}
    second:
      m_TileIndex: 22
      m_TileSpriteIndex: 35
      m_TileMatrixIndex: 0
      m_TileColorIndex: 0
      m_ObjectToInstantiate: {fileID: 0}
      m_TileFlags: 1
      m_ColliderType: 1
  - first: {x: -3, y: -7, z: 0}
    second:
      m_TileIndex: 16
      m_TileSpriteIndex: 16
      m_TileMatrixIndex: 2
      m_TileColorIndex: 0
      m_ObjectToInstantiate: {fileID: 0}
      m_TileFlags: 1
      m_ColliderType: 1
  - first: {x: -2, y: -7, z: 0}
    second:
      m_TileIndex: 17
      m_TileSpriteIndex: 18
      m_TileMatrixIndex: 5
      m_TileColorIndex: 0
      m_ObjectToInstantiate: {fileID: 0}
      m_TileFlags: 1
      m_ColliderType: 1
  - first: {x: -1, y: -7, z: 0}
    second:
      m_TileIndex: 17
      m_TileSpriteIndex: 18
      m_TileMatrixIndex: 5
      m_TileColorIndex: 0
      m_ObjectToInstantiate: {fileID: 0}
      m_TileFlags: 1
      m_ColliderType: 1
  - first: {x: 0, y: -7, z: 0}
    second:
      m_TileIndex: 16
      m_TileSpriteIndex: 16
      m_TileMatrixIndex: 3
      m_TileColorIndex: 0
      m_ObjectToInstantiate: {fileID: 0}
      m_TileFlags: 1
      m_ColliderType: 1
  - first: {x: -3, y: -6, z: 0}
    second:
      m_TileIndex: 26
      m_TileSpriteIndex: 26
      m_TileMatrixIndex: 0
      m_TileColorIndex: 0
      m_ObjectToInstantiate: {fileID: 0}
      m_TileFlags: 1
      m_ColliderType: 1
  - first: {x: -1, y: -6, z: 0}
    second:
      m_TileIndex: 32
      m_TileSpriteIndex: 24
      m_TileMatrixIndex: 0
      m_TileColorIndex: 0
      m_ObjectToInstantiate: {fileID: 0}
      m_TileFlags: 1
      m_ColliderType: 1
  - first: {x: 0, y: -6, z: 0}
    second:
      m_TileIndex: 26
      m_TileSpriteIndex: 26
      m_TileMatrixIndex: 1
      m_TileColorIndex: 0
      m_ObjectToInstantiate: {fileID: 0}
      m_TileFlags: 1
      m_ColliderType: 1
  - first: {x: 6, y: -6, z: 0}
    second:
      m_TileIndex: 30
      m_TileSpriteIndex: 30
      m_TileMatrixIndex: 0
      m_TileColorIndex: 0
      m_ObjectToInstantiate: {fileID: 0}
      m_TileFlags: 1
      m_ColliderType: 1
  - first: {x: -3, y: -5, z: 0}
    second:
      m_TileIndex: 21
      m_TileSpriteIndex: 21
      m_TileMatrixIndex: 0
      m_TileColorIndex: 0
      m_ObjectToInstantiate: {fileID: 0}
      m_TileFlags: 1
      m_ColliderType: 1
  - first: {x: -2, y: -5, z: 0}
    second:
      m_TileIndex: 34
      m_TileSpriteIndex: 28
      m_TileMatrixIndex: 0
      m_TileColorIndex: 0
      m_ObjectToInstantiate: {fileID: 0}
      m_TileFlags: 1
      m_ColliderType: 1
  - first: {x: 0, y: -5, z: 0}
    second:
      m_TileIndex: 21
      m_TileSpriteIndex: 21
      m_TileMatrixIndex: 1
      m_TileColorIndex: 0
      m_ObjectToInstantiate: {fileID: 0}
      m_TileFlags: 1
      m_ColliderType: 1
  - first: {x: 6, y: -5, z: 0}
    second:
      m_TileIndex: 25
      m_TileSpriteIndex: 25
      m_TileMatrixIndex: 0
      m_TileColorIndex: 0
      m_ObjectToInstantiate: {fileID: 0}
      m_TileFlags: 1
      m_ColliderType: 1
  - first: {x: -3, y: -4, z: 0}
    second:
      m_TileIndex: 16
      m_TileSpriteIndex: 16
      m_TileMatrixIndex: 0
      m_TileColorIndex: 0
      m_ObjectToInstantiate: {fileID: 0}
      m_TileFlags: 1
      m_ColliderType: 1
  - first: {x: -2, y: -4, z: 0}
    second:
      m_TileIndex: 18
      m_TileSpriteIndex: 31
      m_TileMatrixIndex: 0
      m_TileColorIndex: 0
      m_ObjectToInstantiate: {fileID: 0}
      m_TileFlags: 1
      m_ColliderType: 1
  - first: {x: -1, y: -4, z: 0}
    second:
      m_TileIndex: 17
      m_TileSpriteIndex: 18
      m_TileMatrixIndex: 0
      m_TileColorIndex: 0
      m_ObjectToInstantiate: {fileID: 0}
      m_TileFlags: 1
      m_ColliderType: 1
  - first: {x: 0, y: -4, z: 0}
    second:
      m_TileIndex: 16
      m_TileSpriteIndex: 16
      m_TileMatrixIndex: 1
      m_TileColorIndex: 0
      m_ObjectToInstantiate: {fileID: 0}
      m_TileFlags: 1
      m_ColliderType: 1
  - first: {x: 2, y: -4, z: 0}
    second:
      m_TileIndex: 19
      m_TileSpriteIndex: 23
      m_TileMatrixIndex: 0
      m_TileColorIndex: 0
      m_ObjectToInstantiate: {fileID: 0}
      m_TileFlags: 1
      m_ColliderType: 1
  - first: {x: 6, y: -4, z: 0}
    second:
      m_TileIndex: 20
      m_TileSpriteIndex: 22
      m_TileMatrixIndex: 0
      m_TileColorIndex: 0
      m_ObjectToInstantiate: {fileID: 0}
      m_TileFlags: 1
      m_ColliderType: 1
  - first: {x: 4, y: 2, z: 0}
    second:
      m_TileIndex: 28
      m_TileSpriteIndex: 20
      m_TileMatrixIndex: 0
      m_TileColorIndex: 0
      m_ObjectToInstantiate: {fileID: 0}
      m_TileFlags: 1
      m_ColliderType: 1
  - first: {x: 5, y: 2, z: 0}
    second:
      m_TileIndex: 15
      m_TileSpriteIndex: 19
      m_TileMatrixIndex: 0
      m_TileColorIndex: 0
      m_ObjectToInstantiate: {fileID: 0}
      m_TileFlags: 1
      m_ColliderType: 1
  - first: {x: 6, y: 2, z: 0}
    second:
      m_TileIndex: 14
      m_TileSpriteIndex: 17
      m_TileMatrixIndex: 0
      m_TileColorIndex: 0
      m_ObjectToInstantiate: {fileID: 0}
      m_TileFlags: 1
      m_ColliderType: 1
  - first: {x: 7, y: 2, z: 0}
    second:
      m_TileIndex: 13
      m_TileSpriteIndex: 15
      m_TileMatrixIndex: 0
      m_TileColorIndex: 0
      m_ObjectToInstantiate: {fileID: 0}
      m_TileFlags: 1
      m_ColliderType: 1
  - first: {x: 4, y: 3, z: 0}
    second:
      m_TileIndex: 12
      m_TileSpriteIndex: 14
      m_TileMatrixIndex: 0
      m_TileColorIndex: 0
      m_ObjectToInstantiate: {fileID: 0}
      m_TileFlags: 1
      m_ColliderType: 1
  - first: {x: 5, y: 3, z: 0}
    second:
      m_TileIndex: 11
      m_TileSpriteIndex: 13
      m_TileMatrixIndex: 0
      m_TileColorIndex: 0
      m_ObjectToInstantiate: {fileID: 0}
      m_TileFlags: 1
      m_ColliderType: 1
  - first: {x: 6, y: 3, z: 0}
    second:
      m_TileIndex: 10
      m_TileSpriteIndex: 12
      m_TileMatrixIndex: 0
      m_TileColorIndex: 0
      m_ObjectToInstantiate: {fileID: 0}
      m_TileFlags: 1
      m_ColliderType: 1
  - first: {x: 7, y: 3, z: 0}
    second:
      m_TileIndex: 9
      m_TileSpriteIndex: 11
      m_TileMatrixIndex: 0
      m_TileColorIndex: 0
      m_ObjectToInstantiate: {fileID: 0}
      m_TileFlags: 1
      m_ColliderType: 1
  - first: {x: 4, y: 4, z: 0}
    second:
      m_TileIndex: 8
      m_TileSpriteIndex: 10
      m_TileMatrixIndex: 0
      m_TileColorIndex: 0
      m_ObjectToInstantiate: {fileID: 0}
      m_TileFlags: 1
      m_ColliderType: 1
  - first: {x: 5, y: 4, z: 0}
    second:
      m_TileIndex: 7
      m_TileSpriteIndex: 9
      m_TileMatrixIndex: 0
      m_TileColorIndex: 0
      m_ObjectToInstantiate: {fileID: 0}
      m_TileFlags: 1
      m_ColliderType: 1
  - first: {x: 6, y: 4, z: 0}
    second:
      m_TileIndex: 6
      m_TileSpriteIndex: 8
      m_TileMatrixIndex: 0
      m_TileColorIndex: 0
      m_ObjectToInstantiate: {fileID: 0}
      m_TileFlags: 1
      m_ColliderType: 1
  - first: {x: 7, y: 4, z: 0}
    second:
      m_TileIndex: 5
      m_TileSpriteIndex: 7
      m_TileMatrixIndex: 0
      m_TileColorIndex: 0
      m_ObjectToInstantiate: {fileID: 0}
      m_TileFlags: 1
      m_ColliderType: 1
  - first: {x: -5, y: 5, z: 0}
    second:
      m_TileIndex: 0
      m_TileSpriteIndex: 1
      m_TileMatrixIndex: 0
      m_TileColorIndex: 0
      m_ObjectToInstantiate: {fileID: 0}
      m_TileFlags: 1
      m_ColliderType: 1
  - first: {x: -3, y: 5, z: 0}
    second:
      m_TileIndex: 42
      m_TileSpriteIndex: 34
      m_TileMatrixIndex: 0
      m_TileColorIndex: 0
      m_ObjectToInstantiate: {fileID: 0}
      m_TileFlags: 1
      m_ColliderType: 1
  - first: {x: -2, y: 5, z: 0}
    second:
      m_TileIndex: 41
      m_TileSpriteIndex: 33
      m_TileMatrixIndex: 0
      m_TileColorIndex: 0
      m_ObjectToInstantiate: {fileID: 0}
      m_TileFlags: 1
      m_ColliderType: 1
  - first: {x: 0, y: 5, z: 0}
    second:
      m_TileIndex: 31
      m_TileSpriteIndex: 37
      m_TileMatrixIndex: 0
      m_TileColorIndex: 0
      m_ObjectToInstantiate: {fileID: 0}
      m_TileFlags: 2
      m_ColliderType: 1
  - first: {x: 2, y: 5, z: 0}
    second:
      m_TileIndex: 29
      m_TileSpriteIndex: 2
      m_TileMatrixIndex: 0
      m_TileColorIndex: 0
      m_ObjectToInstantiate: {fileID: 0}
      m_TileFlags: 1
      m_ColliderType: 1
  - first: {x: 4, y: 5, z: 0}
    second:
      m_TileIndex: 4
      m_TileSpriteIndex: 6
      m_TileMatrixIndex: 0
      m_TileColorIndex: 0
      m_ObjectToInstantiate: {fileID: 0}
      m_TileFlags: 1
      m_ColliderType: 1
  - first: {x: 5, y: 5, z: 0}
    second:
      m_TileIndex: 3
      m_TileSpriteIndex: 5
      m_TileMatrixIndex: 0
      m_TileColorIndex: 0
      m_ObjectToInstantiate: {fileID: 0}
      m_TileFlags: 1
      m_ColliderType: 1
  - first: {x: 6, y: 5, z: 0}
    second:
      m_TileIndex: 2
      m_TileSpriteIndex: 4
      m_TileMatrixIndex: 0
      m_TileColorIndex: 0
      m_ObjectToInstantiate: {fileID: 0}
      m_TileFlags: 1
      m_ColliderType: 1
  - first: {x: 7, y: 5, z: 0}
    second:
      m_TileIndex: 1
      m_TileSpriteIndex: 3
      m_TileMatrixIndex: 0
      m_TileColorIndex: 0
      m_ObjectToInstantiate: {fileID: 0}
      m_TileFlags: 1
      m_ColliderType: 1
  m_AnimatedTiles: {}
  m_TileAssetArray:
  - m_RefCount: 1
    m_Data: {fileID: 11400000, guid: 1e831c7cb33fd3c46bb204e25d1c7c77, type: 2}
  - m_RefCount: 1
    m_Data: {fileID: 11400000, guid: d2a39685206b6154c92e856f18d1a40b, type: 2}
  - m_RefCount: 1
    m_Data: {fileID: 11400000, guid: 45a75e11484aed543b3369305acc6af6, type: 2}
  - m_RefCount: 1
    m_Data: {fileID: 11400000, guid: 152a023a3ee36f0468996ec49f6117c7, type: 2}
  - m_RefCount: 1
    m_Data: {fileID: 11400000, guid: edf3366977b4fae488185a8ca384e5dc, type: 2}
  - m_RefCount: 1
    m_Data: {fileID: 11400000, guid: f4f67153e1155014f8a2b9ef344a6ece, type: 2}
  - m_RefCount: 1
    m_Data: {fileID: 11400000, guid: af936c9d32f981144b65e8d0b2b19926, type: 2}
  - m_RefCount: 1
    m_Data: {fileID: 11400000, guid: 2d80f5f204b060d4f9c857ee7f03b63c, type: 2}
  - m_RefCount: 1
    m_Data: {fileID: 11400000, guid: 6c16a708a86d4904f93dbedd51a65d1b, type: 2}
  - m_RefCount: 1
    m_Data: {fileID: 11400000, guid: 96f8213ef7256964e82b43eed93d4184, type: 2}
  - m_RefCount: 1
    m_Data: {fileID: 11400000, guid: c1336470fb392b940a4e1633a4420621, type: 2}
  - m_RefCount: 1
    m_Data: {fileID: 11400000, guid: 55f6530524c53954983fa7ace6fa34a1, type: 2}
  - m_RefCount: 1
    m_Data: {fileID: 11400000, guid: 00a640e54b55c704d89c61a5f91c42df, type: 2}
  - m_RefCount: 1
    m_Data: {fileID: 11400000, guid: 0af3552a8a7ba694dabcc450dc106dac, type: 2}
  - m_RefCount: 1
    m_Data: {fileID: 11400000, guid: fae1840b8c95273439d8ac6c17ab9f6d, type: 2}
  - m_RefCount: 1
    m_Data: {fileID: 11400000, guid: 36e1609ec8c97744ab226d0273511057, type: 2}
  - m_RefCount: 4
    m_Data: {fileID: 11400000, guid: 45397b68709d00e4b9c2c95482606c5d, type: 2}
  - m_RefCount: 3
    m_Data: {fileID: 11400000, guid: 6739b7fa5a12b4a4581c40b31baf7bf5, type: 2}
  - m_RefCount: 1
    m_Data: {fileID: 11400000, guid: 09a941052f3394c49a1561486c4e48d1, type: 2}
  - m_RefCount: 1
    m_Data: {fileID: 11400000, guid: 63ad6f32555bd594989d3d7751eb34d8, type: 2}
  - m_RefCount: 1
    m_Data: {fileID: 11400000, guid: e50336482840ad74a8a4d249c2073cc2, type: 2}
  - m_RefCount: 2
    m_Data: {fileID: 11400000, guid: 313a0e2ddd8302441b3100c9054ff845, type: 2}
  - m_RefCount: 1
    m_Data: {fileID: 11400000, guid: be6deda03f1cb6f44babc76eb17aa294, type: 2}
  - m_RefCount: 1
    m_Data: {fileID: 11400000, guid: 06269db3c7f6cfb40ae19e2f87975ac1, type: 2}
  - m_RefCount: 1
    m_Data: {fileID: 11400000, guid: 5eefd24ac3d78774f8d516238314b11e, type: 2}
  - m_RefCount: 1
    m_Data: {fileID: 11400000, guid: a63c8d12941e5b94b925c8bb00729eee, type: 2}
  - m_RefCount: 2
    m_Data: {fileID: 11400000, guid: 8b2e4056e66569a438c6c0a6d152c89e, type: 2}
  - m_RefCount: 1
    m_Data: {fileID: 11400000, guid: abe7f4936a709864f844b9abed457426, type: 2}
  - m_RefCount: 1
    m_Data: {fileID: 11400000, guid: 75ab20a387e68d84193718b8cb6ff6a9, type: 2}
  - m_RefCount: 1
    m_Data: {fileID: 11400000, guid: 2b67b0a7f163f2a47ae02c878f2bae13, type: 2}
  - m_RefCount: 1
    m_Data: {fileID: 11400000, guid: ed772b4389dc29643a06e547b90657e9, type: 2}
  - m_RefCount: 1
    m_Data: {fileID: 11400000, guid: 9c122cf6f39902d41809c1a102f9d5ad, type: 2}
  - m_RefCount: 1
    m_Data: {fileID: 11400000, guid: be7e0923fe0919144b7e13c59a1d9c6b, type: 2}
  - m_RefCount: 1
    m_Data: {fileID: 11400000, guid: 1033a9f8b0de4ae468aac4f6b56a921a, type: 2}
  - m_RefCount: 1
    m_Data: {fileID: 11400000, guid: 4675a1d7ce8c9e64a8d1e525b22b8867, type: 2}
  - m_RefCount: 1
    m_Data: {fileID: 11400000, guid: 55a6b06e7f983934789c7533312ea56e, type: 2}
  - m_RefCount: 1
    m_Data: {fileID: 11400000, guid: b25e2c98f30794746a069cab348cf59a, type: 2}
  - m_RefCount: 1
    m_Data: {fileID: 11400000, guid: 5396a7b7cf8c76443ab21a2b9a8f1830, type: 2}
  - m_RefCount: 1
    m_Data: {fileID: 11400000, guid: 311c487370c5aad4cbce68453f917d3c, type: 2}
  - m_RefCount: 1
    m_Data: {fileID: 11400000, guid: 94d0677bd2a30a04e999fa871e14c314, type: 2}
  - m_RefCount: 1
    m_Data: {fileID: 11400000, guid: 702778581f72c5444b28de4cf035a18a, type: 2}
  - m_RefCount: 1
    m_Data: {fileID: 11400000, guid: d380412e944c71140b0f5b8f309c7b04, type: 2}
  - m_RefCount: 1
    m_Data: {fileID: 11400000, guid: 04319b025abbeb14eb2dccb66110f10c, type: 2}
  - m_RefCount: 1
    m_Data: {fileID: 11400000, guid: 9c3aa389a616a044ea469e0a670b0649, type: 2}
  - m_RefCount: 1
    m_Data: {fileID: 11400000, guid: faa37c9dd4104b64695c1d47b3a2221f, type: 2}
  - m_RefCount: 1
    m_Data: {fileID: 11400000, guid: 3ced4a05f5f453a4fad4184334a7bb4b, type: 2}
  m_TileSpriteArray:
  - m_RefCount: 0
    m_Data: {fileID: 0}
  - m_RefCount: 1
    m_Data: {fileID: 21300000, guid: 00746ccc0215c704aa1d6aa4215fbccd, type: 3}
  - m_RefCount: 1
    m_Data: {fileID: 21300000, guid: 5efb090e946eb7c429503c6cc7419fd2, type: 3}
  - m_RefCount: 1
    m_Data: {fileID: 21300006, guid: f89fc04296baef94bb06eb480b7f2aa7, type: 3}
  - m_RefCount: 1
    m_Data: {fileID: 21300004, guid: f89fc04296baef94bb06eb480b7f2aa7, type: 3}
  - m_RefCount: 1
    m_Data: {fileID: 21300002, guid: f89fc04296baef94bb06eb480b7f2aa7, type: 3}
  - m_RefCount: 1
    m_Data: {fileID: 21300000, guid: f89fc04296baef94bb06eb480b7f2aa7, type: 3}
  - m_RefCount: 1
    m_Data: {fileID: 21300014, guid: f89fc04296baef94bb06eb480b7f2aa7, type: 3}
  - m_RefCount: 1
    m_Data: {fileID: 21300012, guid: f89fc04296baef94bb06eb480b7f2aa7, type: 3}
  - m_RefCount: 1
    m_Data: {fileID: 21300010, guid: f89fc04296baef94bb06eb480b7f2aa7, type: 3}
  - m_RefCount: 1
    m_Data: {fileID: 21300008, guid: f89fc04296baef94bb06eb480b7f2aa7, type: 3}
  - m_RefCount: 1
    m_Data: {fileID: 21300022, guid: f89fc04296baef94bb06eb480b7f2aa7, type: 3}
  - m_RefCount: 1
    m_Data: {fileID: 21300020, guid: f89fc04296baef94bb06eb480b7f2aa7, type: 3}
  - m_RefCount: 1
    m_Data: {fileID: 21300018, guid: f89fc04296baef94bb06eb480b7f2aa7, type: 3}
  - m_RefCount: 1
    m_Data: {fileID: 21300016, guid: f89fc04296baef94bb06eb480b7f2aa7, type: 3}
  - m_RefCount: 1
    m_Data: {fileID: 21300030, guid: f89fc04296baef94bb06eb480b7f2aa7, type: 3}
  - m_RefCount: 4
    m_Data: {fileID: 21300000, guid: 381cd63d26e7e7c4abc2f763e0a5e268, type: 3}
  - m_RefCount: 1
    m_Data: {fileID: 21300028, guid: f89fc04296baef94bb06eb480b7f2aa7, type: 3}
  - m_RefCount: 3
    m_Data: {fileID: 21300004, guid: 381cd63d26e7e7c4abc2f763e0a5e268, type: 3}
  - m_RefCount: 1
    m_Data: {fileID: 21300026, guid: f89fc04296baef94bb06eb480b7f2aa7, type: 3}
  - m_RefCount: 1
    m_Data: {fileID: 21300024, guid: f89fc04296baef94bb06eb480b7f2aa7, type: 3}
  - m_RefCount: 2
    m_Data: {fileID: 21300010, guid: 381cd63d26e7e7c4abc2f763e0a5e268, type: 3}
  - m_RefCount: 1
    m_Data: {fileID: 21300008, guid: 381cd63d26e7e7c4abc2f763e0a5e268, type: 3}
  - m_RefCount: 1
    m_Data: {fileID: 21300006, guid: 381cd63d26e7e7c4abc2f763e0a5e268, type: 3}
  - m_RefCount: 1
    m_Data: {fileID: 21300024, guid: 381cd63d26e7e7c4abc2f763e0a5e268, type: 3}
  - m_RefCount: 1
    m_Data: {fileID: 21300018, guid: 381cd63d26e7e7c4abc2f763e0a5e268, type: 3}
  - m_RefCount: 2
    m_Data: {fileID: 21300020, guid: 381cd63d26e7e7c4abc2f763e0a5e268, type: 3}
  - m_RefCount: 1
    m_Data: {fileID: 21300026, guid: 381cd63d26e7e7c4abc2f763e0a5e268, type: 3}
  - m_RefCount: 1
    m_Data: {fileID: 21300022, guid: 381cd63d26e7e7c4abc2f763e0a5e268, type: 3}
  - m_RefCount: 1
    m_Data: {fileID: 21300014, guid: 381cd63d26e7e7c4abc2f763e0a5e268, type: 3}
  - m_RefCount: 1
    m_Data: {fileID: 21300028, guid: 381cd63d26e7e7c4abc2f763e0a5e268, type: 3}
  - m_RefCount: 1
    m_Data: {fileID: 21300002, guid: 381cd63d26e7e7c4abc2f763e0a5e268, type: 3}
  - m_RefCount: 1
    m_Data: {fileID: 21300012, guid: 381cd63d26e7e7c4abc2f763e0a5e268, type: 3}
  - m_RefCount: 1
    m_Data: {fileID: 21300058, guid: 381cd63d26e7e7c4abc2f763e0a5e268, type: 3}
  - m_RefCount: 1
    m_Data: {fileID: 21300056, guid: 381cd63d26e7e7c4abc2f763e0a5e268, type: 3}
  - m_RefCount: 1
    m_Data: {fileID: 21300016, guid: 381cd63d26e7e7c4abc2f763e0a5e268, type: 3}
  - m_RefCount: 1
    m_Data: {fileID: 21300038, guid: 381cd63d26e7e7c4abc2f763e0a5e268, type: 3}
  - m_RefCount: 2
    m_Data: {fileID: 21300046, guid: 381cd63d26e7e7c4abc2f763e0a5e268, type: 3}
  - m_RefCount: 1
    m_Data: {fileID: 21300044, guid: 381cd63d26e7e7c4abc2f763e0a5e268, type: 3}
  - m_RefCount: 1
    m_Data: {fileID: 21300042, guid: 381cd63d26e7e7c4abc2f763e0a5e268, type: 3}
  - m_RefCount: 1
    m_Data: {fileID: 21300040, guid: 381cd63d26e7e7c4abc2f763e0a5e268, type: 3}
  - m_RefCount: 1
    m_Data: {fileID: 21300036, guid: 381cd63d26e7e7c4abc2f763e0a5e268, type: 3}
  - m_RefCount: 1
    m_Data: {fileID: 21300048, guid: 381cd63d26e7e7c4abc2f763e0a5e268, type: 3}
  - m_RefCount: 1
    m_Data: {fileID: 21300054, guid: 381cd63d26e7e7c4abc2f763e0a5e268, type: 3}
  - m_RefCount: 1
    m_Data: {fileID: 21300052, guid: 381cd63d26e7e7c4abc2f763e0a5e268, type: 3}
  - m_RefCount: 1
    m_Data: {fileID: 21300050, guid: 381cd63d26e7e7c4abc2f763e0a5e268, type: 3}
  m_TileMatrixArray:
  - m_RefCount: 46
    m_Data:
      e00: 1
      e01: 0
      e02: 0
      e03: 0
      e10: 0
      e11: 1
      e12: 0
      e13: 0
      e20: 0
      e21: 0
      e22: 1
      e23: 0
      e30: 0
      e31: 0
      e32: 0
      e33: 1
  - m_RefCount: 3
    m_Data:
      e00: -1
      e01: 0
      e02: 0
      e03: 0
      e10: -0
      e11: 1
      e12: 0
      e13: 0
      e20: -0
      e21: 0
      e22: 1
      e23: 0
      e30: 0
      e31: 0
      e32: 0
      e33: 1
  - m_RefCount: 1
    m_Data:
      e00: 1
      e01: 0
      e02: 0
      e03: 0
      e10: 0
      e11: -1
      e12: 0.00000008742278
      e13: 0
      e20: 0
      e21: -0.00000008742278
      e22: -1
      e23: 0
      e30: 0
      e31: 0
      e32: 0
      e33: 1
  - m_RefCount: 1
    m_Data:
      e00: -1
      e01: 7.642742e-15
      e02: 0.00000008742278
      e03: 0
      e10: 0
      e11: -1
      e12: 0.00000008742278
      e13: 0
      e20: 0.00000008742278
      e21: 0.00000008742278
      e22: 1
      e23: 0
      e30: 0
      e31: 0
      e32: 0
      e33: 1
  - m_RefCount: 0
    m_Data:
      e00: 3.2629066e-36
      e01: 513.2617
      e02: 0
      e03: 8.791814e-39
      e10: 0
      e11: 1e-45
      e12: 0
      e13: 0
      e20: 0
      e21: 0.0000023157318
      e22: 3.264112e-36
      e23: 8.82304e-34
      e30: 0
      e31: 0
      e32: 0
      e33: 0
  - m_RefCount: 2
    m_Data:
      e00: -1
      e01: -0.00000008742278
      e02: -0.00000008742278
      e03: 0
      e10: 0.00000008742278
      e11: -1
      e12: 0
      e13: 0
      e20: 0.00000008742278
      e21: 7.642742e-15
      e22: -1
      e23: 0
      e30: 0
      e31: 0
      e32: 0
      e33: 1
  m_TileColorArray:
  - m_RefCount: 53
    m_Data: {r: 1, g: 1, b: 1, a: 1}
  - m_RefCount: 0
    m_Data: {r: 1e-45, g: 1e-45, b: 1e-45, a: 1e-45}
  m_AnimationFrameRate: 1
  m_Color: {r: 1, g: 1, b: 1, a: 1}
  m_Origin: {x: -5, y: -13, z: 0}
  m_Size: {x: 13, y: 21, z: 1}
  m_TileAnchor: {x: 0.5, y: 0.5, z: 0}
  m_TileOrientation: 0
  m_TileOrientationMatrix:
    e00: 1
    e01: 0
    e02: 0
    e03: 0
    e10: 0
    e11: 1
    e12: 0
    e13: 0
    e20: 0
    e21: 0
    e22: 1
    e23: 0
    e30: 0
    e31: 0
    e32: 0
    e33: 1
